<svg xmlns:svg="http://www.w3.org/2000/svg" xmlns="http://www.w3.org/2000/svg" version="1.1"
   preserveAspectRatio="xMidYMid meet"
   zoomAndPan="magnify"
   viewBox="-16.875 -7.5 2.1259825 2.4542904"
   width="75.590492"
   height="98.171616">
  <path
     d="m -16.875,-5.3769543 v 0.3275255 l 0.0067,0.036611 0.01668,0.030001 0.02668,0.026645 0.03332,0.016679 0.03668,0.00664 h 1.883842 l 0.03668,-0.00664 0.03336,-0.016679 0.02668,-0.026645 0.01668,-0.030001 0.0033,-0.036611 v -0.3275255 l -0.0033,-0.036646 -0.01668,-0.030001 -0.02668,-0.026645 -0.03336,-0.016644 -0.03668,-0.00668 h -1.883842 l -0.03668,0.00668 -0.03332,0.016644 -0.02668,0.026645 -0.01668,0.030001 -0.0067,0.036646"
     style="fill:#f57a2b;fill-opacity:1;fill-rule:evenodd;stroke:none;stroke-width:1"
     id="path3427" />
  <path
     d="m -16.776911,-5.0489402 0.0033,0.013247 0.01,0.00991 0.01667,0.00334 h 1.869605 l 0.01335,-0.00334 0.01333,-0.00991 0.0033,-0.013247 v -0.3238602 l -0.0033,-0.013247 -0.01333,-0.00994 -0.01335,-0.00664 h -1.869605 l -0.01667,0.00664 -0.01,0.00994 -0.0033,0.013247 z m -0.06,0 0.0067,0.033101 0.02,0.026494 0.03004,0.019888 0.03332,0.00664 h 1.869605 l 0.03335,-0.00664 0.03,-0.019888 0.02,-0.026494 0.0067,-0.033101 v -0.3238602 l -0.0067,-0.033135 -0.02,-0.026494 -0.03,-0.019888 -0.03335,-0.00664 h -1.869605 l -0.03332,0.00664 -0.03004,0.019888 -0.02,0.026494 -0.0067,0.033135 v 0.3238602"
     style="fill:#000000;fill-opacity:1;fill-rule:evenodd;stroke:none;stroke-width:0.997176"
     id="path3433" />
  <path
     d="m -16.16337,-5.1931575 h 0.049 l -0.02449,-0.069901 -0.02449,0.069901 z m -0.07628,0.1048015 0.08383,-0.2407782 h 0.0341 l 0.08363,0.2407782 h -0.03977 l -0.02325,-0.067283 h -0.0753 l -0.02325,0.067283 h -0.03997"
     style="fill:#000000;fill-opacity:1;fill-rule:evenodd;stroke:none;stroke-width:1"
     id="path3435" />
  <path
     d="m -15.901819,-5.2309437 0.0053,-2.147e-4 0.0053,-0.00124 0.0049,-0.00181 0.0049,-0.00265 0.0043,-0.00325 0.0036,-0.00366 0.0032,-0.00426 0.0027,-0.0047 0.0018,-0.0051 0.0011,-0.00527 4.03e-4,-0.00527 -4.03e-4,-0.0045 -0.0012,-0.00406 -0.002,-0.00406 -0.0027,-0.00346 -0.0034,-0.00285 -0.0039,-0.00204 -0.0041,-0.00141 -0.0045,-4.027e-4 h -0.05783 v 0.060203 h 0.04255 z m 0.01587,0.1051705 0.0049,-4.349e-4 0.0047,-0.00121 0.0043,-0.00201 0.0041,-0.00285 0.0034,-0.00346 0.0027,-0.00389 0.002,-0.00447 0.0012,-0.0047 4.01e-4,-0.00487 -2.01e-4,-0.00571 -0.0012,-0.00547 -0.002,-0.0053 -0.0027,-0.0051 -0.0034,-0.00447 -0.0041,-0.00406 -0.0045,-0.00346 -0.0049,-0.00265 -0.0055,-0.00201 -0.0054,-0.00104 -0.0057,-4.027e-4 h -0.04641 v 0.067553 h 0.05843 z m 0,0.037417 0.0075,-4.027e-4 0.0073,-0.00144 0.0072,-0.00201 0.0069,-0.00305 0.0065,-0.00369 0.0061,-0.00447 0.0055,-0.0051 0.0049,-0.00567 0.0041,-0.00611 0.0034,-0.00671 0.0029,-0.00691 0.0018,-0.00735 10e-4,-0.00731 2.01e-4,-0.00752 -6.04e-4,-0.00751 -0.0016,-0.00731 -0.0025,-0.00711 -0.0031,-0.00671 -0.0038,-0.00634 -0.0047,-0.00587 -0.0053,-0.00547 -0.0057,-0.0047 -0.0063,-0.00406 -0.0067,-0.00326 0.0059,-0.00305 0.0055,-0.00386 0.0051,-0.0045 0.0045,-0.00487 0.0041,-0.00551 0.0032,-0.00587 0.0027,-0.00611 0.0018,-0.00655 0.0012,-0.00648 4.03e-4,-0.00671 -4.03e-4,-0.00671 -0.0012,-0.00671 -0.0018,-0.00651 -0.0025,-0.00631 -0.0032,-0.00591 -0.0038,-0.00551 -0.0045,-0.00507 -0.0051,-0.0045 -0.0055,-0.00403 -0.0059,-0.00329 -0.0061,-0.00262 -0.0065,-0.00184 -0.0067,-0.00124 -0.0067,-3.704e-4 h -0.09547 v 0.2402077 h 0.09608"
     style="fill:#000000;fill-opacity:1;fill-rule:evenodd;stroke:none;stroke-width:1"
     id="path3437" />
  <path
     d="m -15.545065,-5.1339948 0.0034,0.00662 0.0042,0.0064 0.0046,0.0058 0.0052,0.0054 0.0056,0.0048 0.0062,0.0044 0.0064,0.00359 0.0068,0.00323 0.0072,0.00218 0.0073,0.00181 0.0074,8.053e-4 0.0075,3.706e-4 0.0074,-5.692e-4 0.0074,-0.00121 0.0073,-0.00201 0.007,-0.00259 0.0068,-0.00323 0.0064,-0.00399 0.0058,-0.0044 0.0056,-0.0052 0.005,-0.0056 0.0044,-0.006 0.0038,-0.00638 0.003,-0.00682 0.0026,-0.00698 0.0018,-0.00722 0.001,-0.00738 4.03e-4,-0.00762 v -0.1630245 h -0.03682 v 0.1630245 l -4.03e-4,0.0054 -0.0012,0.0054 -0.0018,0.0052 -0.0024,0.0048 -0.0032,0.0044 -0.0038,0.00399 -0.0042,0.00339 -0.0047,0.00282 -0.005,0.00219 -0.0052,0.00141 -0.0054,10e-4 -0.0054,2.148e-4 -0.0056,-8.054e-4 -0.0052,-0.00121 -0.005,-0.0022 -0.0048,-0.00262 -0.0042,-0.00339 -0.0038,-0.00399 -0.0031,-0.00443 -0.0026,-0.00476 -0.03363,0.014967"
     style="fill:#000000;fill-opacity:1;fill-rule:nonzero;stroke:none;stroke-width:1"
     id="path3439" />
  <path
     d="m -15.184887,-5.2761798 -0.0024,-0.00715 -0.0031,-0.00678 -0.0038,-0.00658 -0.0046,-0.00618 -0.005,-0.00557 -0.0056,-0.0052 -0.006,-0.00456 -0.0066,-0.00399 -0.0068,-0.00319 -0.0072,-0.00259 -0.0073,-0.00181 -0.0074,-0.00117 -0.0075,-1.879e-4 -0.0075,4.027e-4 -0.0074,9.736e-4 -0.0073,0.00201 -0.0072,0.00259 -0.0068,0.00319 -0.0064,0.00399 -0.006,0.0046 -0.0055,0.00496 -0.005,0.00577 -0.0044,0.00598 -0.0038,0.00658 -0.0031,0.00678 -0.0024,0.00715 -0.0033,0.012953 -0.0028,0.013356 -0.002,0.013121 -0.0011,0.013557 -4.02e-4,0.013356 4.02e-4,0.013524 0.0011,0.013323 0.002,0.013356 0.0028,0.013356 0.0033,0.012953 0.0024,0.00715 0.0031,0.00678 0.0038,0.00658 0.0044,0.00598 0.005,0.00577 0.0055,0.005 0.006,0.00456 0.0064,0.00399 0.0068,0.00319 0.0072,0.00259 0.0073,0.00198 0.0074,10e-4 0.0075,4.027e-4 0.0075,-2.148e-4 0.0074,-0.00121 0.0073,-0.00178 0.0072,-0.00262 0.0068,-0.00336 0.0066,-0.00379 0.006,-0.00456 0.0056,-0.0052 0.005,-0.00557 0.0046,-0.00618 0.0038,-0.00658 0.0031,-0.00678 0.0024,-0.00715 0.0033,-0.013154 0.0026,-0.013154 0.0018,-0.013356 0.0011,-0.013323 4.03e-4,-0.013524 -4.03e-4,-0.013356 -0.0011,-0.013356 -0.0018,-0.013323 -0.0026,-0.013356 -0.0033,-0.012953 z m -0.111212,0.1228891 0.002,0.00516 0.0026,0.005 0.0034,0.00436 0.004,0.00399 0.0046,0.00339 0.005,0.00279 0.0052,0.00198 0.0055,0.00121 0.0055,4.026e-4 0.0056,-4.026e-4 0.0055,-0.00121 0.0052,-0.00178 0.005,-0.00282 0.0046,-0.00336 0.0038,-0.00399 0.0034,-0.00456 0.0028,-0.005 0.0018,-0.00516 0.0034,-0.01235 0.0024,-0.01255 0.0016,-0.012551 9.54e-4,-0.012752 v -0.01255 l -9.54e-4,-0.012752 -0.0016,-0.012718 -0.0024,-0.01235 -0.0034,-0.012349 -0.0018,-0.00516 -0.0028,-0.005 -0.0034,-0.0046 -0.0038,-0.00396 -0.0046,-0.00339 -0.005,-0.00279 -0.0052,-0.00198 -0.0055,-0.001 -0.0056,-4.027e-4 -0.0055,4.027e-4 -0.0055,0.00121 -0.0052,0.00199 -0.005,0.00279 -0.0046,0.00339 -0.004,0.00399 -0.0034,0.00436 -0.0026,0.005 -0.002,0.00516 -0.0031,0.012349 -0.0024,0.01255 -0.0016,0.012517 -8.04e-4,0.012752 v 0.01255 l 8.04e-4,0.012752 0.0016,0.01255 0.0024,0.01255 0.0031,0.01235"
     style="fill:#000000;fill-opacity:1;fill-rule:evenodd;stroke:none;stroke-width:1"
     id="path3441" />
  <path
     d="m -16.446734,-5.3303759 h 0.09107 l 0.0075,4.349e-4 0.0075,0.00141 0.0072,0.00205 0.007,0.00288 0.0068,0.00369 0.0061,0.0043 0.0055,0.00514 0.0052,0.00574 0.0043,0.00614 0.0037,0.00655 0.0029,0.00718 0.002,0.00718 0.0012,0.00695 4.03e-4,0.00698 -2.02e-4,0.00718 -0.001,0.00695 -0.0016,0.00678 -0.0023,0.00675 -0.0031,0.00634 -0.0037,0.00598 -0.0043,0.00551 -0.0047,0.00534 -0.0053,0.0045 -0.0059,0.00412 -0.0062,0.00326 0.04245,0.1127212 h -0.03997 l -0.04021,-0.1063452 h -0.0447 v 0.1063452 h -0.03775 v -0.2420199 z m 0.09107,0.097956 0.0047,-4.028e-4 0.0045,-0.00124 0.0043,-0.00161 0.0039,-0.00248 0.0035,-0.00305 0.0031,-0.00349 0.0025,-0.00409 0.0018,-0.00433 10e-4,-0.0045 4.36e-4,-0.0045 -4.36e-4,-0.00473 -10e-4,-0.0047 -0.0018,-0.0043 -0.0025,-0.00389 -0.0029,-0.00369 -0.0037,-0.00305 -0.0039,-0.00248 -0.0043,-0.00184 -0.0045,-0.00124 -0.0047,-4.027e-4 h -0.05332 v 0.060036 h 0.05332"
     style="fill:#000000;fill-opacity:1;fill-rule:evenodd;stroke:none;stroke-width:1"
     id="path3443" />
  <path
     d="m -14.982634,-5.2768174 -0.03547,0.0093 -0.0016,-0.00453 -0.0022,-0.00456 -0.0028,-0.00396 -0.0033,-0.00356 -0.0039,-0.00299 -0.0044,-0.00255 -0.0046,-0.00178 -0.005,-0.00121 -0.005,-3.704e-4 -0.005,1.61e-4 -0.0048,10e-4 -0.0048,0.00157 -0.0044,0.00239 -0.0039,0.00275 -0.0035,0.00359 -0.003,0.00392 -0.0024,0.00419 -0.0018,0.00453 -9.54e-4,0.00493 -4.03e-4,0.00476 4.03e-4,0.00396 9.54e-4,0.00376 0.0016,0.00376 0.0022,0.00319 0.0028,0.00275 0.0031,0.00239 0.0035,0.00178 0.0037,0.00121 0.03527,0.00711 0.0073,0.00198 0.007,0.00255 0.0068,0.00339 0.0063,0.00396 0.0057,0.00473 0.0053,0.00516 0.0048,0.00594 0.0042,0.00614 0.0033,0.00671 0.0028,0.00695 0.002,0.00728 0.0011,0.00735 4.02e-4,0.00752 -4.02e-4,0.00715 -9.55e-4,0.00711 -0.0018,0.00691 -0.0026,0.00675 -0.0032,0.00655 -0.0037,0.00594 -0.0046,0.00554 -0.005,0.00514 -0.0059,0.00476 -0.0061,0.00412 -0.0068,0.00359 -0.007,0.00295 -0.0072,0.00218 -0.0073,0.00158 -0.0075,8.054e-4 -0.0075,2.148e-4 -0.0079,-2.148e-4 -0.0077,-0.00117 -0.0077,-0.00181 -0.0075,-0.00239 -0.0072,-0.00315 -0.0069,-0.00396 -0.0066,-0.00433 -0.0057,-0.00496 -0.0052,-0.00554 -0.0048,-0.00574 -0.0042,-0.00655 -0.0036,-0.00675 -0.0028,-0.00691 -0.002,-0.00731 0.03248,-0.011678 0.0022,0.00614 0.0028,0.00574 0.0036,0.00514 0.0042,0.00496 0.0048,0.00412 0.0053,0.00359 0.0057,0.00275 0.0059,0.00199 0.0063,0.00121 0.0063,3.704e-4 0.0057,-3.704e-4 0.0057,-8.054e-4 0.0055,-0.00157 0.0048,-0.00178 0.0042,-0.00239 0.0039,-0.00319 0.0039,-0.00392 0.003,-0.00476 0.0024,-0.00496 0.0011,-0.00554 4.03e-4,-0.00554 -2.01e-4,-0.00476 -10e-4,-0.00473 -0.0016,-0.00436 -0.0022,-0.00433 -0.0028,-0.00396 -0.0032,-0.00339 -0.0037,-0.00295 -0.0039,-0.00239 -0.0044,-0.00178 -0.0046,-0.001 -0.03544,-0.00731 -0.0066,-0.00157 -0.0063,-0.00259 -0.0059,-0.00315 -0.0057,-0.00396 -0.0052,-0.00436 -0.0046,-0.00514 -0.0039,-0.00534 -0.0033,-0.00594 -0.0026,-0.00634 -0.002,-0.00655 -9.54e-4,-0.00671 -4.03e-4,-0.00695 4.03e-4,-0.00711 0.0011,-0.00735 0.0018,-0.00691 0.0026,-0.00695 0.0033,-0.00651 0.0039,-0.00614 0.0046,-0.00574 0.005,-0.00516 0.0057,-0.00473 0.0059,-0.00396 0.0066,-0.00356 0.0067,-0.00259 0.0072,-0.00218 0.0072,-0.00117 0.0073,-6.04e-4 0.0072,1.879e-4 0.0074,9.736e-4 0.0072,0.00181 0.0068,0.00239 0.0068,0.00315 0.0061,0.00376 0.0057,0.00436 0.0053,0.00493 0.005,0.00554 0.0042,0.00598 0.0035,0.00631 0.003,0.00675 0.0022,0.00691"
     style="fill:#000000;fill-opacity:1;fill-rule:nonzero;stroke:none;stroke-width:1"
     id="path3445" />
  <path
     d="m -16.61006,-5.2911802 h -0.0546 v -0.03745 h 0.146715 v 0.03745 h -0.0546 v 0.2028242 h -0.03752 v -0.2028242"
     style="fill:#000000;fill-opacity:1;fill-rule:evenodd;stroke:none;stroke-width:1"
     id="path3447" />
  <path
     d="m -15.69621,-5.1931575 h 0.04896 l -0.02446,-0.069901 z m -0.07631,0.1048015 0.08386,-0.2407782 h 0.03406 l 0.08366,0.2407782 h -0.03977 l -0.02325,-0.067283 h -0.0753 l -0.02325,0.067283 h -0.04"
     style="fill:#000000;fill-opacity:1;fill-rule:evenodd;stroke:none;stroke-width:1"
     id="path3449" />
  <path
     d="m -15.734934,-7.6633609 0.955414,0.957375 c 0.04067,0.040729 0.04067,0.1062097 0,0.1469383 l -0.955414,0.9573751 c -0.04034,0.040759 -0.106388,0.040759 -0.147057,0 l -0.955768,-0.9573751 c -0.04067,-0.040729 -0.04034,-0.1065668 0,-0.1469383 l 0.955768,-0.957375 c 0.04067,-0.040758 0.106717,-0.040758 0.147057,0"
     style="fill:#f57a2b;fill-opacity:1;fill-rule:nonzero;stroke:none;stroke-width:0.999992"
     id="path3375" />
  <path
     d="m -15.737299,-7.6292156 0.923668,0.9255716 c 0.04573,0.039449 0.05962,0.093625 0,0.1420592 l -0.923668,0.9255716 c -0.03037,0.036713 -0.08753,0.064589 -0.142177,0 l -0.924025,-0.9255716 c -0.04377,-0.033499 -0.05809,-0.096838 0,-0.1420592 l 0.924025,-0.9255716 c 0.05622,-0.066969 0.108917,-0.038378 0.142177,0 z"
     style="fill:#000000;fill-opacity:1;fill-rule:nonzero;stroke:none;stroke-width:0.999992"
     id="path3377" />
  <path
     d="m -14.834432,-6.6144369 c 0.0048,-0.00488 0.0076,-0.011484 0.0076,-0.018118 0,-0.00661 -0.0029,-0.013567 -0.0076,-0.018446 l -0.95565,-0.9575535 c -0.01148,-0.00994 -0.02394,-0.010234 -0.03635,0 l -0.956897,0.9584163 c -0.0088,0.01071 -0.0094,0.023831 0,0.034718 l 0.956571,0.9582377 c 0.01137,0.010739 0.02642,0.010204 0.03699,0 l 0.955352,-0.957256 z"
     style="fill:#f57a2b;fill-opacity:1;fill-rule:nonzero;stroke:none;stroke-width:0.999992"
     id="path3379" />
  <path
     d="m -16.255299,-6.8170316 -0.04335,0.1513415 -0.07161,0.133967 -0.117872,0.096333 v 0.015947 h 0.251305 v -0.141226 h 0.0647 v -0.1050197 h -0.0647 v -0.1513413 z"
     style="fill:#000000;fill-opacity:1;fill-rule:nonzero;stroke:none;stroke-width:0.999992"
     id="path3381" />
  <path
     d="m -15.965341,-6.7854006 0.689918,0.00271 v 0.3023557 h -0.779734 l -0.04252,-0.044687 v -0.1955804 l 0.132331,-0.064797 z"
     style="fill:#000000;fill-opacity:1;fill-rule:nonzero;stroke:none;stroke-width:0.999992"
     id="path3383" />
  <path
     d="m -15.75902,-7.0421631 h 0.34948 v 0.2461567 h -0.34948 z"
     style="fill:#000000;fill-opacity:1;fill-rule:nonzero;stroke:none;stroke-width:0.999992"
     id="path3385" />
  <path
     d="m -15.718983,-6.993558 h 0.168061 v 0.1729404 h -0.168061 z"
     style="fill:#f57a2b;fill-opacity:1;fill-rule:nonzero;stroke:none;stroke-width:0.999992"
     id="path3387" />
  <path
     d="m -16.048847,-6.4785362 c 0,-0.085265 0.069,-0.154376 0.154108,-0.154376 0.08511,0 0.154138,0.06911 0.154138,0.154376 0,0.085265 -0.06902,0.154376 -0.154138,0.154376 -0.08512,0 -0.154108,-0.06911 -0.154108,-0.154376 z"
     style="fill:#f57a2b;fill-opacity:1;fill-rule:nonzero;stroke:none;stroke-width:0.999992"
     id="path3389" />
  <path
     d="m -16.033456,-6.4790395 c 0,-0.076965 0.06226,-0.1393222 0.139084,-0.1393222 0.07681,0 0.139084,0.062358 0.139084,0.1393222 0,0.076936 -0.06227,0.1393221 -0.139084,0.1393221 -0.07681,0 -0.139084,-0.062388 -0.139084,-0.1393221"
     style="fill:#000000;fill-opacity:1;fill-rule:nonzero;stroke:none;stroke-width:0.999992"
     id="path3391" />
  <path
     d="m -15.953364,-6.4792409 c 0,-0.034093 0.02761,-0.061762 0.06163,-0.061762 0.03406,0 0.06164,0.027667 0.06164,0.061762 0,0.034124 -0.02759,0.061762 -0.06164,0.061762 -0.03404,0 -0.06163,-0.027638 -0.06163,-0.061762 z"
     style="fill:#f57a2b;fill-opacity:1;fill-rule:nonzero;stroke:none;stroke-width:0.999992"
     id="path3393" />
  <path
     d="m -15.594171,-6.4790731 c 0,-0.085265 0.06902,-0.154376 0.154138,-0.154376 0.08512,0 0.154109,0.06911 0.154109,0.154376 0,0.085265 -0.069,0.154376 -0.154109,0.154376 -0.08512,0 -0.154138,-0.06911 -0.154138,-0.154376 z"
     style="fill:#f57a2b;fill-opacity:1;fill-rule:nonzero;stroke:none;stroke-width:0.999992"
     id="path3395" />
  <path
     d="m -15.578779,-6.4795764 c 0,-0.076965 0.0623,-0.1393222 0.139115,-0.1393222 0.07681,0 0.139085,0.062358 0.139085,0.1393222 0,0.076936 -0.06227,0.1393221 -0.139085,0.1393221 -0.07681,0 -0.139115,-0.062388 -0.139115,-0.1393221"
     style="fill:#000000;fill-opacity:1;fill-rule:nonzero;stroke:none;stroke-width:0.999992"
     id="path3397" />
  <path
     d="m -15.498653,-6.4797778 c 0,-0.034093 0.02761,-0.061762 0.06163,-0.061762 0.03404,0 0.06164,0.027667 0.06164,0.061762 0,0.034093 -0.0276,0.061762 -0.06164,0.061762 -0.03404,0 -0.06163,-0.027667 -0.06163,-0.061762 z"
     style="fill:#f57a2b;fill-opacity:1;fill-rule:nonzero;stroke:none;stroke-width:0.999992"
     id="path3399" />
</svg>
